…
    ## Rows: 122 Columns: 607
    ## ── Column specification ────────────────────────────────────────────────────────
    ## Delimiter: "\t"
    ## chr   (1): ID
    ## dbl (606): DMIFACA_2, DMIFACA_16, DMIFACA_37, DMIFACA_39, DMIFACA_44, DMIFAC...
    ## 
    ## ℹ Use `spec()` to retrieve the full column specification for this data.
    ## ℹ Specify the column types or set `show_col_types = FALSE` to quiet this message.

``` r
I$ID <- str_remove(I$ID, "\\.cleaned$")
(meta_I <- inner_join(meta_gdl, I, by="ID"))
```

    ## # A tibble: 85 × 608
    ##    ID         location     DMIFACA_2 DMIFACA_16 DMIFACA_37 DMIFACA_39 DMIFACA_44
    ##    <chr>      <chr>            <dbl>      <dbl>      <dbl>      <dbl>      <dbl>
    ##  1 SRR1662283 Beijing, Ch…      1          0.97       0.4        0.71       0.47
    ##  2 SRR1663528 Beijing, Ch…      1          0.96       0.4        0.79       0.45
    ##  3 SRR1663529 Beijing, Ch…     -1          0.94       0.38       0.77       0.42
    ##  4 SRR1663530 Beijing, Ch…     -1          0.96       0.33       0.81       0.42
    ##  5 SRR1663531 Beijing, Ch…      1          0.92       0.39       0.77       0.43
    ##  6 SRR1663532 Beijing, Ch…      1          0.96       0.27       0.85       0.33
    ##  7 SRR1663533 Beijing, Ch…      0.68       0.92       0.41       0.78       0.44
    ##  8 SRR1663534 Beijing, Ch…      0.93       0.92       0.4        0.77       0.46
    ##  9 SRR1663535 Beijing, Ch…     -1          0.94       0.36       0.79       0.41
    ## 10 SRR1663536 Beijing, Ch…     -1          0.88       0.4        0.82       0.44
    ## # ℹ 75 more rows
    ## # ℹ 601 more variables: DMIFACA_46 <dbl>, DMIFACA_52 <dbl>, DMIFACA_53 <dbl>,
    ## #   DMIFACA_74 <dbl>, DMIFACA_102 <dbl>, DMIFACA_117 <dbl>, DMIFACA_129 <dbl>,
    ## #   DMIFACA_130 <dbl>, DMIFACA_131 <dbl>, DMIFACA_153 <dbl>, DMIFACA_158 <dbl>,
    ## #   DMIFACA_161 <dbl>, DMIFACA_164 <dbl>, DMIFACA_171 <dbl>, DMIFACA_215 <dbl>,
    ## #   DMIFACA_218 <dbl>, DMIFACA_219 <dbl>, DMIFACA_220 <dbl>, DMIFACA_226 <dbl>,
    ## #   DMIFACA_236 <dbl>, DMIFACA_245 <dbl>, DMIFACA_250 <dbl>, …
…
    ## Rows: 122 Columns: 2
    ## ── Column specification ────────────────────────────────────────────────────────
    ## Delimiter: "\t"
    ## chr (1): ID
    ## dbl (1): PPI251_31
    ## 
    ## ℹ Use `spec()` to retrieve the full column specification for this data.
    ## ℹ Specify the column types or set `show_col_types = FALSE` to quiet this message.

``` r
P$ID <- str_remove(P$ID, "\\.cleaned$")
(meta_P <- inner_join(meta_gdl, P, by="ID"))
```

    ## # A tibble: 85 × 3
    ##    ID         location       PPI251_31
    ##    <chr>      <chr>              <dbl>
    ##  1 SRR1662283 Beijing, China      0.18
    ##  2 SRR1663528 Beijing, China      0.29
    ##  3 SRR1663529 Beijing, China      0.19
    ##  4 SRR1663530 Beijing, China      0.23
    ##  5 SRR1663531 Beijing, China      0.17
    ##  6 SRR1663532 Beijing, China      0.06
    ##  7 SRR1663533 Beijing, China      0.16
    ##  8 SRR1663534 Beijing, China      0.21
    ##  9 SRR1663535 Beijing, China      0.17
    ## 10 SRR1663536 Beijing, China      0.27
    ## # ℹ 75 more rows
…
    ## Rows: 122 Columns: 424
    ## ── Column specification ────────────────────────────────────────────────────────
    ## Delimiter: "\t"
    ## chr   (1): ID
    ## dbl (423): DMHFL1_13, DMHFL1_20, DMHFL1_21, DMHFL1_28, DMHFL1_44, DMHFL1_46,...
    ## 
    ## ℹ Use `spec()` to retrieve the full column specification for this data.
    ## ℹ Specify the column types or set `show_col_types = FALSE` to quiet this message.

``` r
hobo$ID <- str_remove(hobo$ID, "\\.cleaned$")
(meta_hobo <- inner_join(meta_gdl, hobo, by="ID"))
```

    ## # A tibble: 85 × 425
    ##    ID       location DMHFL1_13 DMHFL1_20 DMHFL1_21 DMHFL1_28 DMHFL1_44 DMHFL1_46
    ##    <chr>    <chr>        <dbl>     <dbl>     <dbl>     <dbl>     <dbl>     <dbl>
    ##  1 SRR1662… Beijing…      0.99      0.98      0.99      0.95      0.98      0.95
    ##  2 SRR1663… Beijing…      0.99      0.98      0.98      0.92      0.97      0.91
    ##  3 SRR1663… Beijing…      0.99      0.99      0.99      0.92      0.99      0.91
    ##  4 SRR1663… Beijing…      0.99      0.98      0.99      0.94      0.98      0.93
    ##  5 SRR1663… Beijing…      0.98      0.96      0.97      0.86      0.97      0.86
    ##  6 SRR1663… Beijing…      0.99      0.98      0.99      0.92      0.98      0.9 
    ##  7 SRR1663… Beijing…      0.99      0.98      0.99      0.93      0.98      0.9 
    ##  8 SRR1663… Beijing…      1         0.98      0.99      0.97      0.99      0.97
    ##  9 SRR1663… Beijing…      0.99      0.99      0.98      0.9       0.98      0.87
    ## 10 SRR1663… Beijing…      1         0.98      0.97      0.89      0.96      0.85
    ## # ℹ 75 more rows
    ## # ℹ 417 more variables: DMHFL1_54 <dbl>, DMHFL1_55 <dbl>, DMHFL1_56 <dbl>,
    ## #   DMHFL1_61 <dbl>, DMHFL1_67 <dbl>, DMHFL1_70 <dbl>, DMHFL1_72 <dbl>,
    ## #   DMHFL1_87 <dbl>, DMHFL1_103 <dbl>, DMHFL1_104 <dbl>, DMHFL1_116 <dbl>,
    ## #   DMHFL1_117 <dbl>, DMHFL1_118 <dbl>, DMHFL1_119 <dbl>, DMHFL1_136 <dbl>,
    ## #   DMHFL1_137 <dbl>, DMHFL1_143 <dbl>, DMHFL1_150 <dbl>, DMHFL1_199 <dbl>,
    ## #   DMHFL1_201 <dbl>, DMHFL1_213 <dbl>, DMHFL1_215 <dbl>, DMHFL1_221 <dbl>, …
…
## Plots

Create the tibbles of private alleles with different frequency
thresholds for all the 4 interesting TEs.

``` r
(tib412 <- different_thresholds(meta_412, 50))
```

    ## # A tibble: 29 × 5
    ##    location SNP        thr perc_shared_in_pop number_external
    ##    <chr>    <chr>    <dbl>              <dbl>           <int>
    ##  1 Zimbabwe 412_7199   0.5              0.786               3
    ##  2 Zimbabwe 412_7168   0.6              0.643               0
    ##  3 Zimbabwe 412_115    0.7              0.786               2
    ##  4 Zimbabwe 412_1530   0.7              0.714               4
    ##  5 Zimbabwe 412_1536   0.7              0.714               5
    ##  6 Zimbabwe 412_1542   0.7              0.714               5
    ##  7 Zimbabwe 412_1554   0.7              0.571               4
    ##  8 Zimbabwe 412_1524   0.8              0.786              12
    ##  9 Zimbabwe 412_1476   0.9              0.571               8
    ## 10 Zimbabwe 412_1500   0.9              0.714               5
    ## # ℹ 19 more rows
…
    ## # A tibble: 4 × 5
    ##   location       SNP          thr perc_shared_in_pop number_external
    ##   <chr>          <chr>      <dbl>              <dbl>           <int>
    ## 1 Beijing, China BLOOD_4216   0.8              0.733              10
    ## 2 Beijing, China BLOOD_267    0.9              0.8                 1
    ## 3 Beijing, China BLOOD_7278   0.9              0.6                 1
    ## 4 Zimbabwe       BLOOD_188    0.8              0.571              10

``` r
(tib_OPUS <- different_thresholds(meta_OPUS, 50))
```

    ## # A tibble: 21 × 5
    ##    location            SNP         thr perc_shared_in_pop number_external
    ##    <chr>               <chr>     <dbl>              <dbl>           <int>
    ##  1 Tasmania, Australia OPUS_325    0.5              0.778               4
    ##  2 Tasmania, Australia OPUS_7328   0.5              0.778               5
    ##  3 Tasmania, Australia OPUS_6383   0.9              0.889              11
    ##  4 Zimbabwe            OPUS_7369   0.5              0.714               0
    ##  5 Zimbabwe            OPUS_366    0.6              0.786               0
    ##  6 Zimbabwe            OPUS_4521   0.9              0.643              13
    ##  7 Zimbabwe            OPUS_4597   0.9              0.643              14
    ##  8 Zimbabwe            OPUS_4647   0.9              0.643              14
    ##  9 Zimbabwe            OPUS_4669   0.9              0.571              12
    ## 10 Ithaca, USA         OPUS_6385   0.6              0.842              14
    ## # ℹ 11 more rows

``` r
(tib_TIRANT <- different_thresholds(meta_TIRANT, 50))
```

    ## # A tibble: 48 × 5
    ##    location    SNP           thr perc_shared_in_pop number_external
    ##    <chr>       <chr>       <dbl>              <dbl>           <int>
    ##  1 Ithaca, USA TIRANT_5628   0.5              0.684               7
    ##  2 Ithaca, USA TIRANT_6757   0.5              0.632              13
    ##  3 Ithaca, USA TIRANT_2254   0.7              0.632               0
    ##  4 Ithaca, USA TIRANT_271    0.8              0.579               0
    ##  5 Ithaca, USA TIRANT_272    0.8              0.632               1
    ##  6 Ithaca, USA TIRANT_7005   0.8              0.789               0
    ##  7 Ithaca, USA TIRANT_7215   0.8              0.579               0
    ##  8 Ithaca, USA TIRANT_8235   0.8              0.526               1
    ##  9 Ithaca, USA TIRANT_8379   0.8              0.632               4
    ## 10 Ithaca, USA TIRANT_128    0.9              0.737               1
    ## # ℹ 38 more rows
…
``` r
#(tib_P <- different_thresholds(meta_P, 30))
(tib_hobo <- different_thresholds(meta_hobo, 50))
```

    ## # A tibble: 23 × 5
    ##    location    SNP           thr perc_shared_in_pop number_external
    ##    <chr>       <chr>       <dbl>              <dbl>           <int>
    ##  1 Ithaca, USA DMHFL1_1163   0.5              0.526               5
    ##  2 Ithaca, USA DMHFL1_1145   0.6              0.684              10
    ##  3 Ithaca, USA DMHFL1_1146   0.6              0.684              13
    ##  4 Ithaca, USA DMHFL1_1414   0.6              0.526              14
    ##  5 Ithaca, USA DMHFL1_1305   0.7              0.526              13
    ##  6 Ithaca, USA DMHFL1_1616   0.7              0.526              11
    ##  7 Ithaca, USA DMHFL1_1322   0.8              0.526              14
    ##  8 Ithaca, USA DMHFL1_1326   0.8              0.526              12
    ##  9 Ithaca, USA DMHFL1_1484   0.8              0.632              13
    ## 10 Ithaca, USA DMHFL1_1490   0.8              0.737              14
    ## # ℹ 13 more rows
…
