…
``` r
museum_final <- museum %>% inner_join(museum2, by="sample") %>% mutate(study="museum")
```

``` r
gdl_final <- gdl %>% 
  mutate(location = case_when(startsWith(sample, "B") ~ "Beijing, China", startsWith(sample, "I") ~ "Ithaca, USA", startsWith(sample, "N") ~ "Netherlands", startsWith(sample, "T") ~ "Tasmania, Australia", startsWith(sample, "Z") ~ "Zimbabwe"), lat = case_when(startsWith(sample, "B") ~ 40, startsWith(sample, "I") ~ 42, startsWith(sample, "N") ~ 52, startsWith(sample, "T") ~ 43, startsWith(sample, "Z") ~ 19), , long = case_when(startsWith(sample, "B") ~ 116, startsWith(sample, "I") ~ 76, startsWith(sample, "N") ~ 5, startsWith(sample, "T") ~ 147, startsWith(sample, "Z") ~ 29), study="gdl")
```

``` r
metadata <- bind_rows(museum_final, ols, gdl_final)
metadata
```

    ## # A tibble: 123 × 7
    ##    run_accession sample year        location                     lat  long study
    ##    <chr>         <chr>  <chr>       <chr>                      <dbl> <dbl> <chr>
    ##  1 SRR23876562   H9     Mid 1800s   Passau, Germany               46    13 muse…
    ##  2 SRR23876563   H10    Early 1800s Lund, Sweden                  56    13 muse…
    ##  3 SRR23876564   H4     Early 1800s Lund, Sweden                  56    13 muse…
    ##  4 SRR23876565   H5     Late 1800s  Zealand, Denmark              55    12 muse…
    ##  5 SRR23876566   H6     Early 1800s Småland, Sweden (but infe…    57    15 muse…
    ##  6 SRR23876567   H7     1933        Lund, Sweden                  56    13 muse…
    ##  7 SRR23876568   H8     1933        Lund, Sweden                  56    13 muse…
    ##  8 SRR23876569   H25    Mid 1800s   Passau, Germany               46    13 muse…
    ##  9 SRR23876570   H24    1933        Lund, Sweden                  56    13 muse…
    ## 10 SRR23876571   H23    1933        Lund, Sweden                  56    13 muse…
    ## # ℹ 113 more rows
…
